<?xml version="1.0" encoding="utf-8"?>
<!-- Generator: Adobe Illustrator 22.0.1, SVG Export Plug-In . SVG Version: 6.00 Build 0)  -->
<svg version="1.1" id="Layer_1" xmlns="http://www.w3.org/2000/svg" xmlns:xlink="http://www.w3.org/1999/xlink" x="0px" y="0px"
	 viewBox="0 0 612 792" style="enable-background:new 0 0 612 792;" xml:space="preserve">
<style type="text/css">
	.st0{clip-path:url(#SVGID_2_);}
	.st1{font-family:'HelveticaNeue';}
	.st2{font-size:24px;}
	.st3{clip-path:url(#SVGID_4_);fill:none;stroke:#000000;stroke-width:2;}
	.st4{clip-path:url(#SVGID_4_);}
	.st5{clip-path:url(#SVGID_6_);fill:none;stroke:#000000;stroke-width:2;}
	.st6{clip-path:url(#SVGID_6_);}
	.st7{clip-path:url(#SVGID_8_);fill:none;stroke:#000000;stroke-width:2;}
	.st8{clip-path:url(#SVGID_10_);}
	.st9{font-size:12px;}
	.st10{clip-path:url(#SVGID_12_);fill:none;stroke:#000000;stroke-width:2;}
	.st11{clip-path:url(#SVGID_12_);}
	.st12{clip-path:url(#SVGID_14_);fill:none;stroke:#000000;stroke-width:2;}
	.st13{clip-path:url(#SVGID_14_);}
	.st14{clip-path:url(#SVGID_16_);fill:none;stroke:#000000;stroke-width:2;}
	.st15{clip-path:url(#SVGID_16_);}
	.st16{clip-path:url(#SVGID_18_);fill:none;stroke:#000000;stroke-width:2;}
	.st17{clip-path:url(#SVGID_18_);}
	.st18{clip-path:url(#SVGID_20_);fill:none;stroke:#000000;stroke-width:2;}
	.st19{clip-path:url(#SVGID_20_);}
	.st20{clip-path:url(#SVGID_22_);fill:none;stroke:#000000;stroke-width:2;}
	.st21{clip-path:url(#SVGID_22_);}
	.st22{clip-path:url(#SVGID_24_);fill:none;stroke:#000000;stroke-width:2;}
	.st23{clip-path:url(#SVGID_24_);}
	.st24{clip-path:url(#SVGID_26_);fill:none;stroke:#000000;stroke-width:2;}
	.st25{clip-path:url(#SVGID_26_);}
	.st26{clip-path:url(#SVGID_28_);fill:none;stroke:#000000;stroke-width:2;}
	.st27{clip-path:url(#SVGID_28_);}
	.st28{clip-path:url(#SVGID_30_);fill:none;stroke:#000000;stroke-width:2;}
	.st29{clip-path:url(#SVGID_32_);}
	.st30{clip-path:url(#SVGID_34_);fill:none;stroke:#000000;stroke-width:2;}
	.st31{clip-path:url(#SVGID_34_);}
	.st32{clip-path:url(#SVGID_36_);fill:none;stroke:#000000;stroke-width:2;}
	.st33{clip-path:url(#SVGID_36_);}
	.st34{clip-path:url(#SVGID_38_);fill:none;stroke:#000000;stroke-width:2;}
	.st35{clip-path:url(#SVGID_40_);}
	.st36{clip-path:url(#SVGID_42_);fill:none;stroke:#000000;stroke-width:2;}
	.st37{clip-path:url(#SVGID_42_);}
	.st38{clip-path:url(#SVGID_44_);fill:none;stroke:#000000;stroke-width:2;}
	.st39{clip-path:url(#SVGID_44_);}
	.st40{clip-path:url(#SVGID_46_);fill:none;stroke:#000000;stroke-width:2;}
	.st41{clip-path:url(#SVGID_48_);}
	.st42{clip-path:url(#SVGID_50_);}
	.st43{clip-path:url(#SVGID_52_);fill:none;stroke:#000000;stroke-width:2;}
	.st44{clip-path:url(#SVGID_52_);}
	.st45{clip-path:url(#SVGID_54_);}
	.st46{clip-path:url(#SVGID_56_);fill:none;stroke:#000000;stroke-width:2;}
	.st47{clip-path:url(#SVGID_56_);}
	.st48{clip-path:url(#SVGID_58_);}
	.st49{clip-path:url(#SVGID_60_);}
	.st50{fill:#FFFFFF;}
	.st51{clip-path:url(#SVGID_62_);}
	.st52{clip-path:url(#SVGID_64_);}
	.st53{clip-path:url(#SVGID_66_);}
	.st54{clip-path:url(#SVGID_68_);}
	.st55{clip-path:url(#SVGID_70_);fill:none;stroke:#000000;stroke-width:2;}
	.st56{clip-path:url(#SVGID_72_);}
	.st57{clip-path:url(#SVGID_74_);fill:none;stroke:#000000;stroke-width:2;}
	.st58{clip-path:url(#SVGID_74_);}
	.st59{clip-path:url(#SVGID_76_);fill:none;stroke:#000000;stroke-width:2;}
	.st60{clip-path:url(#SVGID_78_);}
	.st61{clip-path:url(#SVGID_80_);fill:none;stroke:#000000;stroke-width:2;}
	.st62{clip-path:url(#SVGID_82_);}
	.st63{clip-path:url(#SVGID_84_);fill:none;stroke:#000000;stroke-width:2;}
	.st64{clip-path:url(#SVGID_86_);}
	.st65{clip-path:url(#SVGID_88_);fill:none;stroke:#000000;stroke-width:2;}
	.st66{clip-path:url(#SVGID_90_);}
	.st67{clip-path:url(#SVGID_92_);fill:none;stroke:#000000;stroke-width:2;}
	.st68{clip-path:url(#SVGID_94_);}
	.st69{clip-path:url(#SVGID_96_);fill:none;stroke:#000000;stroke-width:2;}
	.st70{clip-path:url(#SVGID_98_);}
	.st71{clip-path:url(#SVGID_100_);fill:none;stroke:#000000;stroke-width:2;}
	.st72{clip-path:url(#SVGID_100_);}
	.st73{clip-path:url(#SVGID_102_);fill:none;stroke:#000000;stroke-width:2;}
	.st74{clip-path:url(#SVGID_104_);}
	.st75{clip-path:url(#SVGID_106_);fill:none;stroke:#000000;stroke-width:2;}
	.st76{clip-path:url(#SVGID_108_);}
	.st77{clip-path:url(#SVGID_110_);fill:none;stroke:#000000;stroke-width:2;}
	.st78{clip-path:url(#SVGID_112_);}
	.st79{clip-path:url(#SVGID_114_);fill:none;stroke:#000000;stroke-width:2;}
	.st80{clip-path:url(#SVGID_116_);fill:none;stroke:#000000;stroke-width:2;}
	.st81{clip-path:url(#SVGID_118_);}
	.st82{clip-path:url(#SVGID_120_);}
	.st83{clip-path:url(#SVGID_122_);}
</style>
<font horiz-adv-x="1000">
<!-- &quot;Helvetica Neue&quot; is a trademark of Heidelberger Druckmaschinen AG, which may be registered in certain jurisdictions, exclusivly licensed through Linotype Library GmbH, a wholly owned subsidiary of Heidelberger Druckmaschinen AG. -->
<font-face font-family="HelveticaNeue" units-per-em="1000" underline-position="-100" underline-thickness="50"/>
<missing-glyph horiz-adv-x="500" d="M409,666l-307,0l0,-619l307,0M460,712l0,-711l-409,0l0,711z"/>
<glyph unicode=" " horiz-adv-x="278"/>
<glyph unicode="." horiz-adv-x="278" d="M83,111l0,-111l111,0l0,111z"/>
<glyph unicode="/" horiz-adv-x="333" d="M278,731l-295,-747l72,0l296,747z"/>
<glyph unicode="2" horiz-adv-x="556" d="M44,458l85,0C128,479 131,501 136,522C141,543 149,561 160,578C171,595 186,608 204,619C221,629 242,634 267,634C286,634 303,631 320,625C337,619 351,610 364,599C376,588 386,574 393,559C400,543 404,525 404,506C404,481 400,460 393,441C385,422 374,405 359,389C344,373 325,357 302,342C279,326 253,309 223,290C198,275 175,260 152,243C129,226 109,207 91,185C73,163 58,137 47,108C35,78 27,42 24,0l463,0l0,75l-364,0C127,97 136,117 149,134C162,151 177,166 196,181C214,196 234,210 256,223C278,236 300,249 322,262C344,276 365,291 386,306C407,321 425,339 441,358C457,377 470,398 480,422C489,446 494,474 494,505C494,538 488,568 477,593C465,618 449,640 429,657C409,674 386,687 359,696C332,705 303,709 272,709C235,709 201,703 172,690C143,677 118,660 99,638C79,615 64,589 55,558C46,527 42,494 44,458z"/>
<glyph unicode="A" horiz-adv-x="648" d="M201,295l121,333l2,0l119,-333M272,714l-278,-714l97,0l80,215l302,0l78,-215l105,0l-279,714z"/>
<glyph unicode="B" horiz-adv-x="685" d="M173,407l0,227l190,0C384,634 403,633 422,631C440,628 456,623 470,615C484,607 495,596 503,581C511,566 515,546 515,521C515,483 503,455 480,436C456,417 417,407 363,407M78,714l0,-714l345,0C458,0 490,6 517,18C544,29 566,45 585,64C603,83 617,104 626,129C635,154 640,179 640,205C640,249 628,286 605,317C582,348 548,368 504,377l0,2C538,392 564,413 583,441C601,468 610,501 610,539C610,575 602,605 586,630C569,655 549,674 526,688C515,695 503,700 488,703C473,706 456,709 439,711C422,712 404,713 387,714C369,714 352,714 337,714M173,80l0,247l217,0C410,327 429,325 448,322C467,318 483,312 498,303C512,294 523,281 532,266C541,251 545,231 545,208C545,168 533,137 510,114C486,91 453,80 411,80z"/>
<glyph unicode="C" horiz-adv-x="722" d="M580,499l95,0C670,537 658,571 641,600C624,629 602,653 576,672C550,691 520,706 487,716C454,726 418,731 381,731C326,731 278,721 236,702C193,682 158,655 130,621C101,587 80,547 65,502C50,456 43,407 43,355C43,303 50,254 64,209C77,164 98,124 125,91C152,58 187,32 228,13C269,-6 318,-16 373,-16C464,-16 536,9 589,59C642,109 673,179 682,269l-95,0C585,240 579,212 569,187C559,162 545,140 528,122C510,103 489,89 465,79C440,68 412,63 381,63C338,63 302,71 271,87C240,103 215,125 196,152C176,179 161,210 152,247C143,283 138,321 138,362C138,399 143,435 152,470C161,505 176,536 196,563C215,590 240,611 271,627C301,643 337,651 380,651C430,651 473,638 510,613C546,588 569,550 580,499z"/>
<glyph unicode="D" horiz-adv-x="704" d="M173,80l0,554l160,0C377,634 414,628 444,616C474,603 499,585 518,562C537,538 550,509 559,476C567,442 571,404 571,361C571,317 567,280 558,249C549,218 537,192 523,171C509,150 493,134 476,122C458,110 440,101 422,95C404,88 387,84 371,83C355,81 342,80 331,80M78,714l0,-714l245,0C382,0 434,8 477,25C520,42 556,66 584,98C612,129 633,168 646,215C659,261 666,314 666,374C666,489 636,574 577,630C518,686 433,714 323,714z"/>
<glyph unicode="F" horiz-adv-x="574" d="M78,714l0,-714l95,0l0,327l328,0l0,80l-328,0l0,227l374,0l0,80z"/>
<glyph unicode="G" horiz-adv-x="759" d="M612,89l25,-89l60,0l0,376l-313,0l0,-80l228,0C613,263 609,233 599,205C589,176 574,152 555,131C535,110 511,93 482,81C453,69 420,63 383,63C343,63 308,71 278,87C247,102 222,123 201,150C180,176 165,206 154,241C143,275 138,311 138,348C138,386 143,423 152,460C161,496 176,528 196,557C215,585 241,608 272,625C303,642 340,651 383,651C410,651 435,648 459,642C482,635 503,626 522,613C541,600 556,584 569,565C582,545 590,521 595,494l95,0C683,536 671,572 653,602C634,631 612,656 585,675C558,694 527,709 493,718C458,727 422,731 383,731C326,731 277,721 235,700C192,679 157,650 129,615C100,580 79,539 65,492C50,445 43,395 43,343C43,296 51,251 66,208C81,165 104,126 133,93C162,60 198,33 240,14C282,-6 330,-16 383,-16C425,-16 467,-8 508,9C549,25 584,52 612,89z"/>
<glyph unicode="H" horiz-adv-x="722" d="M78,714l0,-714l95,0l0,327l376,0l0,-327l95,0l0,714l-95,0l0,-307l-376,0l0,307z"/>
<glyph unicode="I" horiz-adv-x="259" d="M82,714l0,-714l95,0l0,714z"/>
<glyph unicode="K" horiz-adv-x="667" d="M78,714l0,-714l95,0l0,250l119,111l258,-361l120,0l-313,426l301,288l-123,0l-362,-356l0,356z"/>
<glyph unicode="M" horiz-adv-x="871" d="M80,714l0,-714l90,0l0,594l2,0l223,-594l81,0l223,594l2,0l0,-594l90,0l0,714l-130,0l-226,-600l-225,600z"/>
<glyph unicode="O" horiz-adv-x="760" d="M133,357C133,393 138,429 147,464C156,499 171,530 191,558C211,586 237,609 268,626C299,643 337,651 380,651C423,651 461,643 492,626C523,609 549,586 569,558C589,530 604,499 613,464C622,429 627,393 627,357C627,321 622,286 613,251C604,216 589,184 569,156C549,128 523,106 492,89C461,72 423,63 380,63C337,63 299,72 268,89C237,106 211,128 191,156C171,184 156,216 147,251C138,286 133,321 133,357M38,357C38,308 45,262 60,217C74,172 95,132 124,97C153,62 188,35 231,15C274,-6 323,-16 380,-16C437,-16 486,-6 529,15C572,35 607,62 636,97C665,132 686,172 701,217C715,262 722,308 722,357C722,406 715,453 701,498C686,543 665,582 636,617C607,652 572,679 529,700C486,721 437,731 380,731C323,731 274,721 231,700C188,679 153,652 124,617C95,582 74,543 60,498C45,453 38,406 38,357z"/>
<glyph unicode="P" horiz-adv-x="648" d="M173,372l0,262l186,0C413,634 453,623 478,601C503,578 515,546 515,503C515,460 503,428 478,405C453,382 413,371 359,372M78,714l0,-714l95,0l0,292l218,0C463,291 518,310 555,347C592,384 610,436 610,503C610,570 592,622 555,659C518,696 463,714 391,714z"/>
<glyph unicode="R" horiz-adv-x="685" d="M78,714l0,-714l95,0l0,305l232,0C428,305 447,302 461,295C475,288 486,278 495,267C504,255 510,241 514,226C518,210 521,193 524,176C527,159 529,141 530,123C531,105 531,88 532,73C533,57 534,43 537,30C539,17 543,7 550,0l106,0C646,12 639,26 634,42C629,57 625,74 622,91C619,108 618,126 617,144C616,162 615,180 614,197C612,214 609,231 606,247C602,263 596,278 589,291C581,304 571,315 558,324C545,333 528,340 507,344l0,2C550,358 582,380 602,413C621,446 631,484 631,527C631,585 612,631 574,664C535,697 482,714 414,714M371,385l-198,0l0,249l236,0C454,634 486,623 506,600C526,577 536,548 536,512C536,486 532,465 523,449C514,432 502,419 487,410C472,400 454,393 434,390C414,387 393,385 371,385z"/>
<glyph unicode="S" horiz-adv-x="648" d="M491,505l90,0C580,544 572,578 559,607C545,635 526,658 503,677C479,696 451,709 420,718C389,727 355,731 318,731C285,731 254,727 223,719C192,710 164,698 140,681C115,664 96,642 81,616C66,589 59,558 59,522C59,489 66,462 79,441C92,419 109,401 131,388C152,374 177,363 204,355C231,346 259,339 288,333C316,326 344,320 371,314C398,308 423,300 445,291C466,281 484,268 497,253C510,238 516,218 516,193C516,167 511,146 500,129C489,112 475,99 458,90C441,80 421,73 400,69C378,65 356,63 335,63C308,63 282,66 257,73C232,80 210,90 191,104C172,118 156,136 145,158C133,179 127,205 127,235l-90,0C37,192 45,154 61,123C76,91 98,65 125,45C152,24 183,9 219,-1C254,-11 292,-16 332,-16C365,-16 398,-12 431,-4C464,3 493,16 520,33C547,50 569,72 586,99C603,126 611,158 611,196C611,231 605,261 592,284C579,307 561,327 540,342C518,357 493,370 466,379C439,388 411,395 383,402C354,409 326,415 299,421C272,426 247,433 226,442C204,451 187,462 174,476C161,489 154,507 154,529C154,552 159,572 168,588C177,603 189,616 204,625C219,634 236,641 255,645C274,649 294,651 314,651C363,651 404,640 436,617C467,594 486,556 491,505z"/>
<glyph unicode="U" horiz-adv-x="722" d="M648,258l0,456l-95,0l0,-456C553,194 537,146 506,113C474,80 428,63 367,63C303,63 254,80 220,113C186,146 169,194 169,258l0,456l-95,0l0,-456C74,163 100,93 152,50C203,6 275,-16 367,-16C457,-16 526,7 575,53C624,98 648,167 648,258z"/>
<glyph unicode="V" horiz-adv-x="611" d="M359,0l254,714l-99,0l-206,-619l-2,0l-204,619l-102,0l251,-714z"/>
<glyph unicode="a" horiz-adv-x="537" d="M522,2C507,-7 487,-11 461,-11C439,-11 422,-5 409,8C396,20 389,40 389,68C366,40 339,20 308,8C277,-5 243,-11 207,-11C184,-11 162,-8 141,-3C120,2 101,11 86,22C71,33 59,48 50,67C41,85 36,107 36,133C36,162 41,186 51,205C61,224 74,239 91,251C107,262 126,271 147,277C168,283 189,288 211,292C234,297 257,300 278,303C299,305 317,308 333,313C349,317 362,323 371,332C380,340 385,352 385,368C385,387 382,402 375,413C368,424 359,433 348,439C337,445 324,449 311,451C297,453 283,454 270,454C234,454 204,447 180,434C156,420 143,394 141,356l-85,0C57,388 64,415 76,437C88,459 104,477 124,491C144,504 167,514 193,520C218,526 246,529 275,529C298,529 322,527 345,524C368,521 388,514 407,504C426,493 441,479 452,460C463,441 469,417 469,387l0,-266C469,101 470,86 473,77C475,68 483,63 496,63C503,63 512,65 522,68M384,267C373,259 359,253 342,250C325,246 307,243 288,241C269,238 249,236 230,233C211,230 193,225 178,218C163,211 150,202 141,190C131,177 126,160 126,139C126,125 129,113 135,104C140,94 148,86 157,80C166,74 176,70 188,67C200,64 213,63 226,63C254,63 278,67 298,75C318,82 334,92 347,104C360,115 369,128 375,142C381,155 384,168 384,180z"/>
<glyph unicode="c" horiz-adv-x="537" d="M415,351l88,0C500,382 492,408 479,431C466,453 450,471 431,486C411,501 388,512 363,519C337,526 309,529 280,529C239,529 204,522 173,508C142,493 117,474 97,449C76,424 61,394 51,361C41,327 36,291 36,252C36,213 41,178 52,146C62,113 77,85 98,62C118,39 143,21 174,8C204,-5 239,-11 278,-11C344,-11 396,6 435,41C473,76 497,125 506,189l-87,0C414,149 399,118 376,96C352,74 319,63 277,63C250,63 227,68 208,79C189,90 173,104 161,122C149,139 140,159 135,182C129,205 126,228 126,252C126,278 129,303 134,328C139,352 148,373 161,392C173,411 189,426 210,437C231,448 256,454 287,454C323,454 352,445 373,427C394,409 408,384 415,351z"/>
<glyph unicode="d" horiz-adv-x="593" d="M126,254C126,279 129,304 134,328C139,352 148,373 160,392C172,411 188,426 208,437C228,448 252,454 281,454C310,454 335,449 356,438C377,427 394,412 407,394C420,376 429,355 435,332C441,308 444,283 444,258C444,234 441,210 436,187C430,164 421,143 408,125C395,106 379,91 359,80C339,69 315,63 286,63C259,63 235,68 215,79C194,90 178,104 165,122C152,140 142,161 136,184C129,207 126,230 126,254M526,0l0,714l-85,0l0,-266l-2,0C430,463 418,476 405,487C391,497 376,505 361,512C346,518 330,522 315,525C300,528 285,529 272,529C233,529 198,522 169,508C139,493 114,474 95,450C75,425 60,397 51,364C41,331 36,297 36,260C36,223 41,189 51,156C61,123 76,95 96,70C115,45 140,26 170,11C199,-4 234,-11 274,-11C310,-11 343,-5 373,8C403,21 425,41 439,70l2,0l0,-70z"/>
<glyph unicode="e" horiz-adv-x="537" d="M423,308l-297,0C127,328 132,347 139,365C146,382 156,398 169,411C182,424 197,435 215,443C232,450 252,454 274,454C295,454 315,450 333,443C350,435 366,425 379,412C392,399 402,383 410,365C417,347 422,328 423,308M505,164l-84,0C414,130 399,105 376,88C353,71 323,63 287,63C259,63 235,68 214,77C193,86 176,99 163,115C150,130 140,148 134,169C128,189 125,210 126,233l387,0C514,264 512,297 505,332C498,367 485,399 467,428C448,457 424,482 394,501C363,520 325,529 279,529C244,529 211,522 182,509C152,496 126,477 105,453C83,429 66,401 54,368C42,335 36,299 36,260C37,221 43,184 54,151C64,118 79,89 100,65C121,41 146,22 177,9C207,-4 243,-11 284,-11C343,-11 391,4 430,33C469,62 494,106 505,164z"/>
<glyph unicode="f" horiz-adv-x="296" d="M99,442l0,-442l85,0l0,442l100,0l0,75l-100,0l0,72C184,612 190,627 201,635C212,643 228,647 249,647C256,647 264,647 273,646C282,645 290,643 297,640l0,74C289,717 280,719 270,720C259,721 250,722 242,722C195,722 160,711 136,690C111,668 99,636 99,594l0,-77l-87,0l0,-75z"/>
<glyph unicode="h" horiz-adv-x="556" d="M64,714l0,-714l85,0l0,292C149,315 152,337 159,357C165,376 174,393 187,408C200,423 216,434 235,442C254,450 276,454 302,454C335,454 360,445 379,426C398,407 407,382 407,350l0,-350l85,0l0,340C492,368 489,394 484,417C478,440 468,459 454,476C440,493 422,506 399,515C376,524 348,529 314,529C299,529 283,527 267,524C250,521 235,516 220,509C205,502 191,493 179,482C167,471 158,457 151,441l-2,0l0,273z"/>
<glyph unicode="i" horiz-adv-x="222" d="M154,610l0,104l-85,0l0,-104M69,517l0,-517l85,0l0,517z"/>
<glyph unicode="l" horiz-adv-x="222" d="M69,714l0,-714l85,0l0,714z"/>
<glyph unicode="m" horiz-adv-x="853" d="M64,517l0,-517l85,0l0,322C149,332 152,345 157,360C162,375 170,389 181,403C192,417 206,429 224,439C241,449 262,454 287,454C306,454 322,451 335,446C347,440 357,432 364,422C371,411 377,399 380,385C383,371 384,356 384,339l0,-339l85,0l0,322C469,362 481,394 505,418C529,442 562,454 604,454C625,454 642,451 655,445C668,439 678,431 685,421C692,410 697,398 700,384C703,370 704,355 704,339l0,-339l85,0l0,379C789,406 785,429 777,448C768,467 757,482 742,494C727,506 709,515 688,521C667,526 643,529 617,529C583,529 552,521 524,506C495,491 472,469 455,441C444,473 426,496 400,509C374,522 345,529 313,529C240,529 185,500 146,441l-2,0l0,76z"/>
<glyph unicode="n" horiz-adv-x="556" d="M64,517l0,-517l85,0l0,292C149,315 152,337 159,357C165,376 174,393 187,408C200,423 216,434 235,442C254,450 276,454 302,454C335,454 360,445 379,426C398,407 407,382 407,350l0,-350l85,0l0,340C492,368 489,394 484,417C478,440 468,459 454,476C440,493 422,506 399,515C376,524 348,529 314,529C237,529 181,498 146,435l-2,0l0,82z"/>
<glyph unicode="o" horiz-adv-x="574" d="M126,258C126,289 130,317 139,342C147,366 158,386 173,403C188,420 205,432 225,441C244,450 265,454 287,454C309,454 330,450 350,441C369,432 386,420 401,403C416,386 427,366 436,342C444,317 448,289 448,258C448,227 444,199 436,175C427,150 416,130 401,114C386,97 369,85 350,76C330,67 309,63 287,63C265,63 244,67 225,76C205,85 188,97 173,114C158,130 147,150 139,175C130,199 126,227 126,258M36,258C36,220 41,185 52,152C63,119 79,91 100,67C121,42 148,23 179,10C210,-4 246,-11 287,-11C328,-11 365,-4 396,10C427,23 453,42 474,67C495,91 511,119 522,152C533,185 538,220 538,258C538,296 533,332 522,365C511,398 495,426 474,451C453,475 427,494 396,508C365,522 328,529 287,529C246,529 210,522 179,508C148,494 121,475 100,451C79,426 63,398 52,365C41,332 36,296 36,258z"/>
<glyph unicode="p" horiz-adv-x="593" d="M67,517l0,-714l85,0l0,266l2,0C163,54 175,41 189,31C202,20 217,12 232,6C247,0 263,-4 279,-7C294,-10 308,-11 321,-11C360,-11 395,-4 425,10C454,24 479,43 499,68C518,92 533,120 543,153C552,186 557,220 557,257C557,294 552,328 542,361C532,394 517,423 498,448C478,473 453,492 424,507C394,522 359,529 319,529C283,529 250,523 220,510C190,497 168,476 154,447l-2,0l0,70M467,263C467,238 464,213 459,189C454,165 445,144 433,125C421,106 405,91 386,80C366,69 341,63 312,63C283,63 258,69 237,80C216,91 200,105 187,123C174,141 164,162 158,186C152,209 149,234 149,259C149,283 152,307 158,330C163,353 172,374 185,393C198,411 214,426 234,437C254,448 278,454 307,454C334,454 358,449 379,438C399,427 416,413 429,395C442,377 451,357 458,334C464,311 467,287 467,263z"/>
<glyph unicode="r" horiz-adv-x="333" d="M61,517l0,-517l85,0l0,230C146,263 149,293 156,319C163,344 173,366 188,384C203,402 222,416 246,425C270,434 299,439 333,439l0,90C287,530 249,521 219,501C189,481 164,450 143,408l-2,0l0,109z"/>
<glyph unicode="s" horiz-adv-x="500" d="M116,163l-85,0C32,131 39,104 51,82C63,59 79,41 99,28C119,14 142,4 168,-2C194,-8 221,-11 250,-11C276,-11 302,-8 329,-3C355,2 379,10 400,23C421,36 438,52 451,73C464,94 470,120 470,151C470,176 465,196 456,213C446,230 433,244 418,255C402,266 384,274 364,281C343,288 322,293 301,298C281,303 261,307 241,312C221,316 203,321 187,328C171,334 158,342 148,352C137,361 132,373 132,388C132,401 135,412 142,421C149,429 157,436 168,441C179,446 191,449 204,451C217,453 229,454 242,454C256,454 270,453 284,450C297,447 310,442 321,435C332,428 342,420 349,409C356,398 361,384 362,367l85,0C445,398 438,425 427,446C416,467 401,483 382,496C363,508 341,517 316,522C291,527 264,529 235,529C212,529 190,526 167,521C144,515 123,506 105,495C86,483 71,468 60,449C48,430 42,408 42,382C42,349 50,323 67,304C84,285 105,271 130,261C155,250 182,242 211,237C240,231 268,225 293,218C318,211 338,201 355,190C372,179 380,162 380,140C380,124 376,111 368,101C360,90 350,82 338,77C325,72 312,68 297,66C282,64 268,63 255,63C238,63 221,65 205,68C188,71 174,77 161,85C148,92 137,103 129,116C121,129 117,144 116,163z"/>
<glyph unicode="t" horiz-adv-x="315" d="M182,517l0,155l-85,0l0,-155l-88,0l0,-75l88,0l0,-329C97,89 99,70 104,55C109,40 116,29 126,21C135,13 148,8 164,5C179,2 198,0 220,0l65,0l0,75l-39,0C233,75 222,76 214,77C205,78 199,80 194,83C189,86 186,91 185,97C183,103 182,111 182,121l0,321l103,0l0,75z"/>
<glyph unicode="u" horiz-adv-x="556" d="M492,0l0,517l-85,0l0,-292C407,202 404,180 398,161C391,141 382,124 369,109C356,94 341,83 322,75C303,67 280,63 254,63C221,63 196,72 177,91C158,110 149,135 149,167l0,350l-85,0l0,-340C64,149 67,124 73,101C78,78 88,58 102,41C116,24 134,12 157,3C180,-6 208,-11 242,-11C280,-11 313,-3 341,12C369,27 392,50 410,82l2,0l0,-82z"/>
<glyph unicode="y" horiz-adv-x="500" d="M267,-69C257,-94 247,-116 238,-133C228,-150 217,-164 206,-175C194,-186 181,-194 167,-199C152,-204 136,-207 117,-207C107,-207 97,-206 87,-205C77,-204 67,-201 58,-198l0,78C65,-123 74,-126 84,-128C93,-131 101,-132 108,-132C125,-132 140,-128 152,-119C163,-111 172,-99 178,-84l35,87l-205,514l96,0l151,-423l2,0l145,423l90,0z"/>
</font>

	<g>
	<defs>
		<rect id="SVGID_1_" x="290.9" y="162.4" width="108.5" height="33"/>
	</defs>
	<clipPath id="SVGID_2_">
		<use xlink:href="#SVGID_1_"  style="overflow:visible;"/>
	</clipPath>
	<g class="st0">
		<text transform="matrix(1 0 0 1 305 194)" class="st1 st2"> . . . . . .</text>
	</g>
</g>
<g>
	<defs>
		<rect id="SVGID_3_" x="464.3" y="157.4" width="11.6" height="21.1"/>
	</defs>
	<clipPath id="SVGID_4_">
		<use xlink:href="#SVGID_3_"  style="overflow:visible;"/>
	</clipPath>
	<polyline class="st3" points="470.1,177.4 470.1,168 470.1,167 	"/>
	<polygon class="st4" points="474.9,168 470.1,158.4 465.3,168 	"/>
</g>
<g>
	<defs>
		<rect id="SVGID_5_" x="464.3" y="208.6" width="11.6" height="21.1"/>
	</defs>
	<clipPath id="SVGID_6_">
		<use xlink:href="#SVGID_5_"  style="overflow:visible;"/>
	</clipPath>
	<polyline class="st5" points="470.1,228.6 470.1,219.2 470.1,218.2 	"/>
	<polygon class="st6" points="474.9,219.2 470.1,209.6 465.3,219.2 	"/>
</g>
<g>
	<defs>
		<rect id="SVGID_7_" x="432.1" y="175" width="75.9" height="35.6"/>
	</defs>
	<clipPath id="SVGID_8_">
		<use xlink:href="#SVGID_7_"  style="overflow:visible;"/>
	</clipPath>
	<rect x="434.1" y="177" class="st7" width="71.9" height="31.6"/>
</g>
<g>
	<defs>
		<rect id="SVGID_9_" x="435.1" y="178" width="69.9" height="29.6"/>
	</defs>
	<clipPath id="SVGID_10_">
		<use xlink:href="#SVGID_9_"  style="overflow:visible;"/>
	</clipPath>
	<g class="st8">
		<text transform="matrix(1 0 0 1 448 197)" class="st1 st9">Painters</text>
	</g>
</g>
<g>
	<defs>
		<rect id="SVGID_11_" x="420.1" y="741.6" width="51.8" height="11.6"/>
	</defs>
	<clipPath id="SVGID_12_">
		<use xlink:href="#SVGID_11_"  style="overflow:visible;"/>
	</clipPath>
	<polyline class="st10" points="429.7,747.4 430.7,747.4 470.9,747.4 	"/>
	<polygon class="st11" points="430.7,742.6 421.1,747.4 430.7,752.2 	"/>
</g>
<g>
	<defs>
		<rect id="SVGID_13_" x="377.3" y="685.4" width="11.6" height="26"/>
	</defs>
	<clipPath id="SVGID_14_">
		<use xlink:href="#SVGID_13_"  style="overflow:visible;"/>
	</clipPath>
	<polyline class="st12" points="383.1,710.4 383.1,696 383.1,695 	"/>
	<polygon class="st13" points="387.9,696 383.1,686.4 378.3,696 	"/>
</g>
<g>
	<defs>
		<rect id="SVGID_15_" x="228" y="633.3" width="11.6" height="20.5"/>
	</defs>
	<clipPath id="SVGID_16_">
		<use xlink:href="#SVGID_15_"  style="overflow:visible;"/>
	</clipPath>
	<polyline class="st14" points="233.8,634.3 233.8,643.2 233.8,644.2 	"/>
	<polygon class="st15" points="229,643.2 233.8,652.8 238.6,643.2 	"/>
</g>
<g>
	<defs>
		<rect id="SVGID_17_" x="377.3" y="547.8" width="11.6" height="106"/>
	</defs>
	<clipPath id="SVGID_18_">
		<use xlink:href="#SVGID_17_"  style="overflow:visible;"/>
	</clipPath>
	<polyline class="st16" points="383.1,557.4 383.1,558.4 383.1,643.2 383.1,644.2 	"/>
	<polygon class="st17" points="378.3,643.2 383.1,652.8 387.9,643.2 	"/>
	<polygon class="st17" points="387.9,558.4 383.1,548.8 378.3,558.4 	"/>
</g>
<g>
	<defs>
		<rect id="SVGID_19_" x="227.1" y="685.4" width="11.6" height="26"/>
	</defs>
	<clipPath id="SVGID_20_">
		<use xlink:href="#SVGID_19_"  style="overflow:visible;"/>
	</clipPath>
	<polyline class="st18" points="232.9,686.4 232.9,700.8 232.9,701.8 	"/>
	<polygon class="st19" points="228.1,700.8 232.9,710.4 237.7,700.8 	"/>
</g>
<g>
	<defs>
		<rect id="SVGID_21_" x="227.1" y="548.5" width="11.6" height="33"/>
	</defs>
	<clipPath id="SVGID_22_">
		<use xlink:href="#SVGID_21_"  style="overflow:visible;"/>
	</clipPath>
	<polyline class="st20" points="232.9,580.5 232.9,559.1 232.9,558.1 	"/>
	<polygon class="st21" points="237.7,559.1 232.9,549.5 228.1,559.1 	"/>
</g>
<g>
	<defs>
		<rect id="SVGID_23_" x="301.3" y="261.2" width="11.6" height="36.9"/>
	</defs>
	<clipPath id="SVGID_24_">
		<use xlink:href="#SVGID_23_"  style="overflow:visible;"/>
	</clipPath>
	<polyline class="st22" points="307.1,297.1 307.1,271.8 307.1,270.8 	"/>
	<polygon class="st23" points="311.9,271.8 307.1,262.2 302.3,271.8 	"/>
</g>
<g>
	<defs>
		<rect id="SVGID_25_" x="227.1" y="157.4" width="11.6" height="21.1"/>
	</defs>
	<clipPath id="SVGID_26_">
		<use xlink:href="#SVGID_25_"  style="overflow:visible;"/>
	</clipPath>
	<polyline class="st24" points="232.9,177.4 232.9,168 232.9,167 	"/>
	<polygon class="st25" points="237.7,168 232.9,158.4 228.1,168 	"/>
</g>
<g>
	<defs>
		<rect id="SVGID_27_" x="227.1" y="208.6" width="11.6" height="21.1"/>
	</defs>
	<clipPath id="SVGID_28_">
		<use xlink:href="#SVGID_27_"  style="overflow:visible;"/>
	</clipPath>
	<polyline class="st26" points="232.9,228.6 232.9,219.2 232.9,218.2 	"/>
	<polygon class="st27" points="237.7,219.2 232.9,209.6 228.1,219.2 	"/>
</g>
<g>
	<defs>
		<rect id="SVGID_29_" x="194.9" y="175" width="75.9" height="35.6"/>
	</defs>
	<clipPath id="SVGID_30_">
		<use xlink:href="#SVGID_29_"  style="overflow:visible;"/>
	</clipPath>
	<rect x="196.9" y="177" class="st28" width="71.9" height="31.6"/>
</g>
<g>
	<defs>
		<rect id="SVGID_31_" x="197.9" y="178" width="69.9" height="29.6"/>
	</defs>
	<clipPath id="SVGID_32_">
		<use xlink:href="#SVGID_31_"  style="overflow:visible;"/>
	</clipPath>
	<g class="st29">
		<text transform="matrix(1 0 0 1 218 197)"><tspan x="0" y="0" class="st1 st9">Ci</tspan><tspan x="11.3" y="0" class="st1 st9">r</tspan><tspan x="15.1" y="0" class="st1 st9">cle</tspan></text>
	</g>
</g>
<g>
	<defs>
		<rect id="SVGID_33_" x="139.2" y="157.4" width="11.6" height="21.1"/>
	</defs>
	<clipPath id="SVGID_34_">
		<use xlink:href="#SVGID_33_"  style="overflow:visible;"/>
	</clipPath>
	<polyline class="st30" points="145,177.4 145,168 145,167 	"/>
	<polygon class="st31" points="149.8,168 145,158.4 140.2,168 	"/>
</g>
<g>
	<defs>
		<rect id="SVGID_35_" x="139.2" y="208.6" width="11.6" height="21.1"/>
	</defs>
	<clipPath id="SVGID_36_">
		<use xlink:href="#SVGID_35_"  style="overflow:visible;"/>
	</clipPath>
	<polyline class="st32" points="145,228.6 145,219.2 145,218.2 	"/>
	<polygon class="st33" points="149.8,219.2 145,209.6 140.2,219.2 	"/>
</g>
<g>
	<defs>
		<rect id="SVGID_37_" x="107.1" y="175" width="75.9" height="35.6"/>
	</defs>
	<clipPath id="SVGID_38_">
		<use xlink:href="#SVGID_37_"  style="overflow:visible;"/>
	</clipPath>
	<rect x="109.1" y="177" class="st34" width="71.9" height="31.6"/>
</g>
<g>
	<defs>
		<rect id="SVGID_39_" x="110.1" y="178" width="69.9" height="29.6"/>
	</defs>
	<clipPath id="SVGID_40_">
		<use xlink:href="#SVGID_39_"  style="overflow:visible;"/>
	</clipPath>
	<g class="st35">
		<text transform="matrix(1 0 0 1 133 197)" class="st1 st9">Rect</text>
	</g>
</g>
<g>
	<defs>
		<rect id="SVGID_41_" x="375.3" y="91.4" width="11.6" height="34.4"/>
	</defs>
	<clipPath id="SVGID_42_">
		<use xlink:href="#SVGID_41_"  style="overflow:visible;"/>
	</clipPath>
	<polyline class="st36" points="381.1,116.2 381.1,115.2 381.1,102 381.1,101 	"/>
	<polygon class="st37" points="385.9,102 381.1,92.4 376.3,102 	"/>
	<polygon class="st37" points="376.3,115.2 381.1,124.8 385.9,115.2 	"/>
</g>
<g>
	<defs>
		<rect id="SVGID_43_" x="227.1" y="91.4" width="11.6" height="34.4"/>
	</defs>
	<clipPath id="SVGID_44_">
		<use xlink:href="#SVGID_43_"  style="overflow:visible;"/>
	</clipPath>
	<polyline class="st38" points="232.9,124.8 232.9,102 232.9,101 	"/>
	<polygon class="st39" points="237.7,102 232.9,92.4 228.1,102 	"/>
</g>
<g>
	<defs>
		<rect id="SVGID_45_" x="71" y="309.1" width="75.9" height="75.9"/>
	</defs>
	<clipPath id="SVGID_46_">
		<use xlink:href="#SVGID_45_"  style="overflow:visible;"/>
	</clipPath>
	<circle class="st40" cx="109" cy="347.1" r="36"/>
</g>
<g>
	<defs>
		<rect id="SVGID_47_" x="73" y="311.1" width="71.9" height="71.9"/>
	</defs>
	<clipPath id="SVGID_48_">
		<use xlink:href="#SVGID_47_"  style="overflow:visible;"/>
	</clipPath>
	<g class="st41">
		<text transform="matrix(1 0 0 1 96 344)" class="st1 st9">PS/2</text>
	</g>
	<g class="st41">
		<text transform="matrix(1 0 0 1 101 358)" class="st1 st9">KB</text>
	</g>
</g>
<g>
	<defs>
		
			<rect id="SVGID_49_" x="352.4" y="391.8" transform="matrix(0.9045 -0.4264 0.4264 0.9045 -157.0934 195.54)" width="11.6" height="113.6"/>
	</defs>
	<clipPath id="SVGID_50_">
		<use xlink:href="#SVGID_49_"  style="overflow:visible;"/>
	</clipPath>
	<g class="st42">
		<defs>
			<rect id="SVGID_51_" width="612" height="792"/>
		</defs>
		<clipPath id="SVGID_52_">
			<use xlink:href="#SVGID_51_"  style="overflow:visible;"/>
		</clipPath>
		<polyline class="st43" points="378.3,491.3 377.9,490.4 338.5,406.8 338.1,405.9 		"/>
		<polygon class="st44" points="342.8,404.8 334.4,398.2 334.1,408.9 		"/>
		<polygon class="st44" points="373.5,492.5 382,499.1 382.2,488.4 		"/>
	</g>
</g>
<g>
	<defs>
		
			<rect id="SVGID_53_" x="199.9" y="442.8" transform="matrix(0.4294 -0.9031 0.9031 0.4294 -257.4012 489.7528)" width="118.1" height="11.6"/>
	</defs>
	<clipPath id="SVGID_54_">
		<use xlink:href="#SVGID_53_"  style="overflow:visible;"/>
	</clipPath>
	<g class="st45">
		<defs>
			<rect id="SVGID_55_" width="612" height="792"/>
		</defs>
		<clipPath id="SVGID_56_">
			<use xlink:href="#SVGID_55_"  style="overflow:visible;"/>
		</clipPath>
		<polyline class="st46" points="234,501 279.7,404.8 280.1,403.9 		"/>
		<polygon class="st47" points="284,406.9 283.8,396.2 275.4,402.8 		"/>
	</g>
</g>
<g>
	<defs>
		<rect id="SVGID_57_" x="256.1" y="296.1" width="102" height="102"/>
	</defs>
	<clipPath id="SVGID_58_">
		<use xlink:href="#SVGID_57_"  style="overflow:visible;"/>
	</clipPath>
	<rect x="257.1" y="297.1" class="st48" width="100" height="100"/>
</g>
<g>
	<defs>
		<rect id="SVGID_59_" x="257.1" y="297.1" width="100" height="100"/>
	</defs>
	<clipPath id="SVGID_60_">
		<use xlink:href="#SVGID_59_"  style="overflow:visible;"/>
	</clipPath>
	<g class="st49">
		<text transform="matrix(1 0 0 1 281 352)"><tspan x="0" y="0" class="st50 st1 st9">Main Co</tspan><tspan x="45.1" y="0" class="st50 st1 st9">r</tspan><tspan x="48.9" y="0" class="st50 st1 st9">e</tspan></text>
	</g>
</g>
<g>
	<defs>
		<rect id="SVGID_61_" x="182.1" y="499.5" width="102" height="51"/>
	</defs>
	<clipPath id="SVGID_62_">
		<use xlink:href="#SVGID_61_"  style="overflow:visible;"/>
	</clipPath>
	<rect x="183.1" y="500.5" class="st51" width="100" height="49"/>
</g>
<g>
	<defs>
		<rect id="SVGID_63_" x="183.1" y="500.5" width="100" height="49"/>
	</defs>
	<clipPath id="SVGID_64_">
		<use xlink:href="#SVGID_63_"  style="overflow:visible;"/>
	</clipPath>
	<g class="st52">
		<text transform="matrix(1 0 0 1 206 529)"><tspan x="0" y="0" class="st50 st1 st9">USB Co</tspan><tspan x="43.5" y="0" class="st50 st1 st9">r</tspan><tspan x="47.3" y="0" class="st50 st1 st9">e</tspan></text>
	</g>
</g>
<g>
	<defs>
		<rect id="SVGID_65_" x="330.1" y="499.5" width="102" height="51"/>
	</defs>
	<clipPath id="SVGID_66_">
		<use xlink:href="#SVGID_65_"  style="overflow:visible;"/>
	</clipPath>
	<rect x="331.1" y="500.5" class="st53" width="100" height="49"/>
</g>
<g>
	<defs>
		<rect id="SVGID_67_" x="331.1" y="500.5" width="100" height="49"/>
	</defs>
	<clipPath id="SVGID_68_">
		<use xlink:href="#SVGID_67_"  style="overflow:visible;"/>
	</clipPath>
	<g class="st54">
		<text transform="matrix(1 0 0 1 339 529)"><tspan x="0" y="0" class="st50 st1 st9">Multimedi</tspan><tspan x="50.1" y="0" class="st50 st1 st9">a</tspan><tspan x="56.5" y="0" class="st50 st1 st9"> </tspan><tspan x="59.2" y="0" class="st50 st1 st9">Co</tspan><tspan x="74.2" y="0" class="st50 st1 st9">r</tspan><tspan x="77.7" y="0" class="st50 st1 st9">e</tspan></text>
	</g>
</g>
<g>
	<defs>
		<rect id="SVGID_69_" x="107.1" y="431.4" width="400" height="37"/>
	</defs>
	<clipPath id="SVGID_70_">
		<use xlink:href="#SVGID_69_"  style="overflow:visible;"/>
	</clipPath>
	<path class="st55" d="M125.5,433.4h363c0,0,1.3,0,3,0.1c7.1,0.6,12.7,6.3,13.3,13.3c0.1,1.7,0.1,3,0.1,3s0,1.3-0.1,3
		c-0.6,7.1-6.3,12.7-13.3,13.3c-1.7,0.1-3,0.1-3,0.1h-363c0,0-1.3,0-3-0.1c-7.1-0.6-12.7-6.3-13.3-13.3c-0.1-1.7-0.1-3-0.1-3
		s0-1.3,0.1-3c0.6-7.1,6.3-12.7,13.3-13.3C124.2,433.4,125.5,433.4,125.5,433.4z"/>
</g>
<g>
	<defs>
		<rect id="SVGID_71_" x="109.1" y="433.4" width="396" height="33"/>
	</defs>
	<clipPath id="SVGID_72_">
		<use xlink:href="#SVGID_71_"  style="overflow:visible;"/>
	</clipPath>
	<g class="st56">
		<text transform="matrix(1 0 0 1 229 455)"><tspan x="0" y="0" class="st1 st9">Interp</tspan><tspan x="31.1" y="0" class="st1 st9">r</tspan><tspan x="34.9" y="0" class="st1 st9">ocess Sha</tspan><tspan x="90.9" y="0" class="st1 st9">r</tspan><tspan x="94.7" y="0" class="st1 st9">ed Memory</tspan></text>
	</g>
</g>
<g>
	<defs>
		<rect id="SVGID_73_" x="144.9" y="340.9" width="112.1" height="11.6"/>
	</defs>
	<clipPath id="SVGID_74_">
		<use xlink:href="#SVGID_73_"  style="overflow:visible;"/>
	</clipPath>
	<polyline class="st57" points="145.9,346.7 246.5,346.7 247.5,346.7 	"/>
	<polygon class="st58" points="246.5,351.5 256.1,346.7 246.5,341.9 	"/>
</g>
<g>
	<defs>
		<rect id="SVGID_75_" x="107.1" y="227.6" width="400" height="35.6"/>
	</defs>
	<clipPath id="SVGID_76_">
		<use xlink:href="#SVGID_75_"  style="overflow:visible;"/>
	</clipPath>
	<rect x="109.1" y="229.6" class="st59" width="396" height="31.6"/>
</g>
<g>
	<defs>
		<rect id="SVGID_77_" x="110.1" y="230.6" width="394" height="29.6"/>
	</defs>
	<clipPath id="SVGID_78_">
		<use xlink:href="#SVGID_77_"  style="overflow:visible;"/>
	</clipPath>
	<g class="st60">
		<text transform="matrix(1 0 0 1 255 250)"><tspan x="0" y="0" class="st1 st9">Graphics Cont</tspan><tspan x="77.8" y="0" class="st1 st9">r</tspan><tspan x="81.6" y="0" class="st1 st9">oller</tspan></text>
	</g>
</g>
<g>
	<defs>
		<rect id="SVGID_79_" x="107.1" y="123.8" width="400" height="35.6"/>
	</defs>
	<clipPath id="SVGID_80_">
		<use xlink:href="#SVGID_79_"  style="overflow:visible;"/>
	</clipPath>
	<rect x="109.1" y="125.8" class="st61" width="396" height="31.6"/>
</g>
<g>
	<defs>
		<rect id="SVGID_81_" x="110.1" y="126.8" width="394" height="29.6"/>
	</defs>
	<clipPath id="SVGID_82_">
		<use xlink:href="#SVGID_81_"  style="overflow:visible;"/>
	</clipPath>
	<g class="st62">
		<text transform="matrix(1 0 0 1 272 146)" class="st1 st9">Frame Bu</text>
	</g>
	<path class="st62" d="M328.8,140.7h-2.4v5.3h-1v-5.3h-1v-0.9h1v-0.9c0-0.5,0.1-0.9,0.4-1.1c0.3-0.3,0.7-0.4,1.3-0.4
		c0.1,0,0.2,0,0.3,0c0.1,0,0.2,0,0.3,0.1v0.9c-0.1,0-0.2-0.1-0.3-0.1c-0.1,0-0.2,0-0.3,0c-0.2,0-0.4,0-0.6,0.1
		c-0.1,0.1-0.2,0.3-0.2,0.6v0.9h2.4v-0.9c0-0.5,0.1-0.9,0.4-1.1c0.3-0.3,0.7-0.4,1.3-0.4c0.1,0,0.2,0,0.3,0c0.1,0,0.2,0,0.3,0.1v0.9
		c-0.1,0-0.2-0.1-0.3-0.1c-0.1,0-0.2,0-0.3,0c-0.2,0-0.4,0-0.6,0.1c-0.1,0.1-0.2,0.3-0.2,0.6v0.9h1.2v0.9h-1.2v5.3h-1V140.7z"/>
	<g class="st62">
		<text transform="matrix(1 0 0 1 331.1602 146)" class="st1 st9">er</text>
	</g>
</g>
<g>
	<defs>
		<rect id="SVGID_83_" x="195.1" y="17.4" width="75.9" height="75.9"/>
	</defs>
	<clipPath id="SVGID_84_">
		<use xlink:href="#SVGID_83_"  style="overflow:visible;"/>
	</clipPath>
	<circle class="st63" cx="233.1" cy="55.4" r="36"/>
</g>
<g>
	<defs>
		<rect id="SVGID_85_" x="197.1" y="19.4" width="71.9" height="71.9"/>
	</defs>
	<clipPath id="SVGID_86_">
		<use xlink:href="#SVGID_85_"  style="overflow:visible;"/>
	</clipPath>
	<g class="st64">
		<text transform="matrix(1 0 0 1 221 52)" class="st1 st9">VGA</text>
	</g>
	<g class="st64">
		<text transform="matrix(1 0 0 1 218 66)"><tspan x="0" y="0" class="st1 st9">V</tspan><tspan x="7.1" y="0" class="st1 st9">ideo</tspan></text>
	</g>
</g>
<g>
	<defs>
		<rect id="SVGID_87_" x="342.1" y="15.4" width="77.9" height="77.9"/>
	</defs>
	<clipPath id="SVGID_88_">
		<use xlink:href="#SVGID_87_"  style="overflow:visible;"/>
	</clipPath>
	<path class="st65" d="M367,17.4h28.1c6.6,0,9.9,0,13.5,1.1c3.9,1.4,6.9,4.5,8.3,8.3c1.1,3.5,1.1,6.9,1.1,13.6v28
		c0,6.6,0,9.9-1.1,13.5c-1.4,3.9-4.5,6.9-8.3,8.3c-3.5,1.1-6.9,1.1-13.6,1.1h-28c-6.6,0-9.9,0-13.5-1.1c-3.9-1.4-6.9-4.5-8.3-8.3
		c-1.1-3.5-1.1-6.9-1.1-13.6v-28c0-6.6,0-9.9,1.1-13.5c1.4-3.9,4.5-6.9,8.3-8.3c3.5-1.1,6.9-1.1,13.6-1.1H367z"/>
</g>
<g>
	<defs>
		<rect id="SVGID_89_" x="344.1" y="17.4" width="73.9" height="73.9"/>
	</defs>
	<clipPath id="SVGID_90_">
		<use xlink:href="#SVGID_89_"  style="overflow:visible;"/>
	</clipPath>
	<g class="st66">
		<text transform="matrix(1 0 0 1 364 59)" class="st1 st9">SRAM</text>
	</g>
</g>
<g>
	<defs>
		<rect id="SVGID_91_" x="71" y="559.4" width="75.9" height="75.9"/>
	</defs>
	<clipPath id="SVGID_92_">
		<use xlink:href="#SVGID_91_"  style="overflow:visible;"/>
	</clipPath>
	<circle class="st67" cx="109" cy="597.3" r="36"/>
</g>
<g>
	<defs>
		<rect id="SVGID_93_" x="73" y="561.4" width="71.9" height="71.9"/>
	</defs>
	<clipPath id="SVGID_94_">
		<use xlink:href="#SVGID_93_"  style="overflow:visible;"/>
	</clipPath>
	<g class="st68">
		<text transform="matrix(1 0 0 1 97 594)" class="st1 st9">USB</text>
	</g>
	<g class="st68">
		<text transform="matrix(1 0 0 1 91 608)" class="st1 st9">Mouse</text>
	</g>
</g>
<g>
	<defs>
		<rect id="SVGID_95_" x="183" y="579.5" width="101.6" height="35.6"/>
	</defs>
	<clipPath id="SVGID_96_">
		<use xlink:href="#SVGID_95_"  style="overflow:visible;"/>
	</clipPath>
	<rect x="185" y="581.5" class="st69" width="97.6" height="31.6"/>
</g>
<g>
	<defs>
		<rect id="SVGID_97_" x="186" y="582.5" width="95.6" height="29.6"/>
	</defs>
	<clipPath id="SVGID_98_">
		<use xlink:href="#SVGID_97_"  style="overflow:visible;"/>
	</clipPath>
	<g class="st70">
		<text transform="matrix(1 0 0 1 200 602)" class="st1 st9">HPI Interface</text>
	</g>
</g>
<g>
	<defs>
		<rect id="SVGID_99_" x="144.9" y="591.5" width="40" height="11.6"/>
	</defs>
	<clipPath id="SVGID_100_">
		<use xlink:href="#SVGID_99_"  style="overflow:visible;"/>
	</clipPath>
	<polyline class="st71" points="145.9,597.3 174.4,597.3 175.4,597.3 	"/>
	<polygon class="st72" points="174.4,602.1 184,597.3 174.4,592.5 	"/>
</g>
<g>
	<defs>
		<rect id="SVGID_101_" x="330.1" y="651.8" width="102" height="35.6"/>
	</defs>
	<clipPath id="SVGID_102_">
		<use xlink:href="#SVGID_101_"  style="overflow:visible;"/>
	</clipPath>
	<rect x="332.1" y="653.8" class="st73" width="98" height="31.6"/>
</g>
<g>
	<defs>
		<rect id="SVGID_103_" x="333.1" y="654.8" width="96" height="29.6"/>
	</defs>
	<clipPath id="SVGID_104_">
		<use xlink:href="#SVGID_103_"  style="overflow:visible;"/>
	</clipPath>
	<g class="st74">
		<text transform="matrix(1 0 0 1 348 674)" class="st1 st9">SD Interface</text>
	</g>
</g>
<g>
	<defs>
		<rect id="SVGID_105_" x="182.8" y="651.8" width="102" height="35.6"/>
	</defs>
	<clipPath id="SVGID_106_">
		<use xlink:href="#SVGID_105_"  style="overflow:visible;"/>
	</clipPath>
	<rect x="184.8" y="653.8" class="st75" width="98" height="31.6"/>
</g>
<g>
	<defs>
		<rect id="SVGID_107_" x="185.8" y="654.8" width="96" height="29.6"/>
	</defs>
	<clipPath id="SVGID_108_">
		<use xlink:href="#SVGID_107_"  style="overflow:visible;"/>
	</clipPath>
	<g class="st76">
		<text transform="matrix(1 0 0 1 194 674)"><tspan x="0" y="0" class="st1 st9">Audi</tspan><tspan x="24" y="0" class="st1 st9">o</tspan><tspan x="30.9" y="0" class="st1 st9"> </tspan><tspan x="33.7" y="0" class="st1 st9">Interfac</tspan><tspan x="73.6" y="0" class="st1 st9">e</tspan></text>
	</g>
</g>
<g>
	<defs>
		<rect id="SVGID_109_" x="195.1" y="709.4" width="75.9" height="75.9"/>
	</defs>
	<clipPath id="SVGID_110_">
		<use xlink:href="#SVGID_109_"  style="overflow:visible;"/>
	</clipPath>
	<circle class="st77" cx="233.1" cy="747.4" r="36"/>
</g>
<g>
	<defs>
		<rect id="SVGID_111_" x="197.1" y="711.4" width="71.9" height="71.9"/>
	</defs>
	<clipPath id="SVGID_112_">
		<use xlink:href="#SVGID_111_"  style="overflow:visible;"/>
	</clipPath>
	<g class="st78">
		<text transform="matrix(1 0 0 1 218 744)" class="st1 st9">Audio</text>
	</g>
	<g class="st78">
		<text transform="matrix(1 0 0 1 221 758)" class="st1 st9">DAC</text>
	</g>
</g>
<g>
	<defs>
		<rect id="SVGID_113_" x="233.1" y="631.6" width="150.1" height="4"/>
	</defs>
	<clipPath id="SVGID_114_">
		<use xlink:href="#SVGID_113_"  style="overflow:visible;"/>
	</clipPath>
	<line class="st79" x1="234.1" y1="633.6" x2="382.2" y2="633.6"/>
</g>
<g>
	<defs>
		<rect id="SVGID_115_" x="344.2" y="709.4" width="77.9" height="75.9"/>
	</defs>
	<clipPath id="SVGID_116_">
		<use xlink:href="#SVGID_115_"  style="overflow:visible;"/>
	</clipPath>
	<path class="st80" d="M369.1,711.4h28.1c6.6,0,9.9,0,13.5,1.1c3.9,1.4,6.9,4.5,8.3,8.3c1.1,3.5,1.1,6.9,1.1,13.6v26
		c0,6.6,0,9.9-1.1,13.5c-1.4,3.9-4.5,6.9-8.3,8.3c-3.5,1.1-6.9,1.1-13.6,1.1h-28c-6.6,0-9.9,0-13.5-1.1c-3.9-1.4-6.9-4.5-8.3-8.3
		c-1.1-3.5-1.1-6.9-1.1-13.6v-26c0-6.6,0-9.9,1.1-13.5c1.4-3.9,4.5-6.9,8.3-8.3c3.5-1.1,6.9-1.1,13.6-1.1H369.1z"/>
</g>
<g>
	<defs>
		<rect id="SVGID_117_" x="346.2" y="711.4" width="73.9" height="71.9"/>
	</defs>
	<clipPath id="SVGID_118_">
		<use xlink:href="#SVGID_117_"  style="overflow:visible;"/>
	</clipPath>
	<g class="st81">
		<text transform="matrix(1 0 0 1 360 751)"><tspan x="0" y="0" class="st1 st9">SD Ca</tspan><tspan x="34.7" y="0" class="st1 st9">r</tspan><tspan x="38.4" y="0" class="st1 st9">d</tspan></text>
	</g>
</g>
<g>
	<defs>
		<rect id="SVGID_119_" x="468.2" y="709.5" width="75.7" height="75.7"/>
	</defs>
	<clipPath id="SVGID_120_">
		<use xlink:href="#SVGID_119_"  style="overflow:visible;"/>
	</clipPath>
	<rect x="469.2" y="710.5" class="st82" width="73.7" height="73.7"/>
</g>
<g>
	<defs>
		<rect id="SVGID_121_" x="469.2" y="710.5" width="73.7" height="73.7"/>
	</defs>
	<clipPath id="SVGID_122_">
		<use xlink:href="#SVGID_121_"  style="overflow:visible;"/>
	</clipPath>
	<g class="st83">
		<text transform="matrix(1 0 0 1 488 751)" class="st50 st1 st9">OsuFS</text>
	</g>
</g>
</svg>
