<?xml version="1.0" encoding="UTF-8" standalone="no"?>
<!DOCTYPE svg PUBLIC "-//W3C//DTD SVG 1.1//EN"
 "http://www.w3.org/Graphics/SVG/1.1/DTD/svg11.dtd">
<!-- Generated by graphviz version 2.40.1 (20161225.0304)
 -->
<!-- Title: state_machine Pages: 1 -->
<svg width="792pt" height="204pt"
 viewBox="0.00 0.00 792.00 203.79" xmlns="http://www.w3.org/2000/svg" xmlns:xlink="http://www.w3.org/1999/xlink">
<g id="graph0" class="graph" transform="scale(.7867 .7867) rotate(0) translate(4 255.0387)">
<title>state_machine</title>
<polygon fill="#ffffff" stroke="transparent" points="-4,4 -4,-255.0387 1002.7127,-255.0387 1002.7127,4 -4,4"/>
<text text-anchor="middle" x="499.3564" y="-6.8" font-family="Times,serif" font-size="14.00" fill="#000000">Polygon Painter State Machine</text>
<!-- 1 -->
<g id="node1" class="node">
<title>1</title>
<ellipse fill="none" stroke="#000000" cx="35.231" cy="-57.231" rx="31.437" ry="31.437"/>
<ellipse fill="none" stroke="#000000" cx="35.231" cy="-57.231" rx="35.4634" ry="35.4634"/>
<text text-anchor="middle" x="35.231" y="-53.031" font-family="Times,serif" font-size="14.00" fill="#000000">s_idle</text>
</g>
<!-- 1&#45;&gt;1 -->
<g id="edge1" class="edge">
<title>1&#45;&gt;1</title>
<path fill="none" stroke="#000000" d="M22.0342,-90.1893C18.0352,-113.0011 22.4341,-135.4619 35.231,-135.4619 46.1283,-135.4619 50.9358,-119.1742 49.6534,-100.2521"/>
<polygon fill="#000000" stroke="#000000" points="53.1113,-99.6927 48.4277,-90.1893 46.1626,-100.5391 53.1113,-99.6927"/>
<text text-anchor="middle" x="35.231" y="-138.2619" font-family="Times,serif" font-size="14.00" fill="#000000">!EN</text>
</g>
<!-- 2 -->
<g id="node2" class="node">
<title>2</title>
<ellipse fill="none" stroke="#000000" cx="207.3514" cy="-148.231" rx="49.7792" ry="49.7792"/>
<text text-anchor="middle" x="207.3514" y="-144.031" font-family="Times,serif" font-size="14.00" fill="#000000">s_scan_left</text>
</g>
<!-- 1&#45;&gt;2 -->
<g id="edge2" class="edge">
<title>1&#45;&gt;2</title>
<path fill="none" stroke="#000000" d="M66.4007,-73.7104C90.7895,-86.6047 125.2725,-104.8359 154.0262,-120.038"/>
<polygon fill="#000000" stroke="#000000" points="152.6641,-123.2768 163.1405,-124.8567 155.9359,-117.0885 152.6641,-123.2768"/>
</g>
<!-- 2&#45;&gt;2 -->
<g id="edge3" class="edge">
<title>2&#45;&gt;2</title>
<path fill="none" stroke="#000000" d="M190.6583,-195.5474C188.2206,-219.5753 193.785,-241.1204 207.3514,-241.1204 218.957,-241.1204 224.7065,-225.3531 224.5999,-205.7526"/>
<polygon fill="#000000" stroke="#000000" points="228.0829,-205.3424 224.0444,-195.5474 221.0932,-205.7229 228.0829,-205.3424"/>
</g>
<!-- 3 -->
<g id="node3" class="node">
<title>3</title>
<ellipse fill="none" stroke="#000000" cx="562.4871" cy="-153.231" rx="54.6162" ry="54.6162"/>
<text text-anchor="middle" x="562.4871" y="-149.031" font-family="Times,serif" font-size="14.00" fill="#000000">s_scan_right</text>
</g>
<!-- 2&#45;&gt;3 -->
<g id="edge4" class="edge">
<title>2&#45;&gt;3</title>
<path fill="none" stroke="#000000" d="M257.4804,-148.9367C320.3138,-149.8214 428.1434,-151.3395 497.3211,-152.3135"/>
<polygon fill="#000000" stroke="#000000" points="497.6096,-155.8178 507.6579,-152.459 497.7082,-148.8185 497.6096,-155.8178"/>
<text text-anchor="middle" x="382.4601" y="-154.031" font-family="Times,serif" font-size="14.00" fill="#000000">PAINT_READY &amp;&amp; ~l_side</text>
</g>
<!-- 3&#45;&gt;2 -->
<g id="edge6" class="edge">
<title>3&#45;&gt;2</title>
<path fill="none" stroke="#000000" d="M510.5316,-135.4531C495.8814,-131.2391 479.8093,-127.354 464.6793,-125.231 392.3046,-115.0754 372.7871,-116.3831 300.2408,-125.231 288.8888,-126.6155 276.9256,-128.9184 265.5006,-131.5457"/>
<polygon fill="#000000" stroke="#000000" points="264.5306,-128.1791 255.628,-133.9231 266.1695,-134.9846 264.5306,-128.1791"/>
<text text-anchor="middle" x="382.4601" y="-128.031" font-family="Times,serif" font-size="14.00" fill="#000000">PAINT_READY &amp;&amp; r_side</text>
</g>
<!-- 3&#45;&gt;3 -->
<g id="edge5" class="edge">
<title>3&#45;&gt;3</title>
<path fill="none" stroke="#000000" d="M530.9129,-198.2515C523.7495,-225.4085 534.2742,-251.0387 562.4871,-251.0387 587.1734,-251.0387 598.3172,-231.4156 595.9184,-208.3167"/>
<polygon fill="#000000" stroke="#000000" points="599.3178,-207.4504 594.0613,-198.2515 592.434,-208.7206 599.3178,-207.4504"/>
</g>
<!-- 4 -->
<g id="node4" class="node">
<title>4</title>
<ellipse fill="none" stroke="#000000" cx="963.2603" cy="-68.231" rx="27.1455" ry="27.1455"/>
<ellipse fill="none" stroke="#000000" cx="963.2603" cy="-68.231" rx="31.1214" ry="31.1214"/>
<text text-anchor="middle" x="963.2603" y="-64.031" font-family="Times,serif" font-size="14.00" fill="#000000">s_fin</text>
</g>
<!-- 3&#45;&gt;4 -->
<g id="edge7" class="edge">
<title>3&#45;&gt;4</title>
<path fill="none" stroke="#000000" d="M616.1213,-141.8557C697.2367,-124.6519 849.3701,-92.3859 922.2701,-76.9246"/>
<polygon fill="#000000" stroke="#000000" points="923.3769,-80.2678 932.4331,-74.7691 921.9245,-73.4201 923.3769,-80.2678"/>
<text text-anchor="middle" x="774.6225" y="-133.031" font-family="Times,serif" font-size="14.00" fill="#000000">PAINT_READY &amp;&amp; r_side &amp;&amp; y==YB</text>
</g>
<!-- 4&#45;&gt;1 -->
<g id="edge9" class="edge">
<title>4&#45;&gt;1</title>
<path fill="none" stroke="#000000" d="M931.8513,-67.8587C794.1199,-66.2261 243.1953,-59.696 80.6163,-57.7689"/>
<polygon fill="#000000" stroke="#000000" points="80.5184,-54.2676 70.4776,-57.6487 80.4354,-61.2671 80.5184,-54.2676"/>
<text text-anchor="middle" x="382.4601" y="-65.031" font-family="Times,serif" font-size="14.00" fill="#000000">!EN</text>
</g>
<!-- 4&#45;&gt;4 -->
<g id="edge8" class="edge">
<title>4&#45;&gt;4</title>
<path fill="none" stroke="#000000" d="M938.5526,-88.017C918.6728,-112.9059 926.9087,-142.5411 963.2603,-142.5411 995.4939,-142.5411 1005.621,-119.2398 993.6416,-96.6081"/>
<polygon fill="#000000" stroke="#000000" points="996.3994,-94.4328 987.968,-88.017 990.5582,-98.2904 996.3994,-94.4328"/>
</g>
</g>
</svg>
